R for the Scientific Study of Politics - Creating New Variables
…
library(RandomData)

season_2023 <- race_stats |>
  select(circuit, year, constructor, surname, time, laps) |>
  filter(constructor == "McLaren" & year == 2023) |>
  mutate(avg_laptime = sum(time)/laps)

season_2023 |> 
   select(circuit, year, constructor, surname, avg_laptime) |>
   # remove duplicates
   unique() |>
   print()

# A tibble: 40 × 5
   circuit                         year constructor surname avg_laptime
   <chr>                          <dbl> <chr>       <chr>         <dbl>
 1 Bahrain International Circuit   2023 McLaren     Norris      646286.
 2 Jeddah Corniche Circuit         2023 McLaren     Norris      710915.
 3 Jeddah Corniche Circuit         2023 McLaren     Piastri     710915.
 4 Albert Park Grand Prix Circuit  2023 McLaren     Norris      612858.
 5 Albert Park Grand Prix Circuit  2023 McLaren     Piastri     612858.
 6 Baku City Circuit               2023 McLaren     Norris      696975.
 7 Baku City Circuit               2023 McLaren     Piastri     696975.
 8 Miami International Autodrome   2023 McLaren     Norris      623609.
 9 Miami International Autodrome   2023 McLaren     Piastri     634745.
10 Circuit de Monaco               2023 McLaren     Norris      461633.
# ℹ 30 more rows
…
print(McLarenStandings_2023)

# A tibble: 40 × 5
   circuit                         year constructor surname final_position
   <chr>                          <dbl> <chr>       <chr>   <chr>         
 1 Bahrain International Circuit   2023 McLaren     Norris  17            
 2 Jeddah Corniche Circuit         2023 McLaren     Norris  17            
 3 Jeddah Corniche Circuit         2023 McLaren     Piastri 15            
 4 Albert Park Grand Prix Circuit  2023 McLaren     Norris  6             
 5 Albert Park Grand Prix Circuit  2023 McLaren     Piastri 8             
 6 Baku City Circuit               2023 McLaren     Norris  9             
 7 Baku City Circuit               2023 McLaren     Piastri 11            
 8 Miami International Autodrome   2023 McLaren     Norris  17            
 9 Miami International Autodrome   2023 McLaren     Piastri 19            
10 Circuit de Monaco               2023 McLaren     Norris  9             
# ℹ 30 more rows
