R for the Scientific Study of Politics - Tiderverse Descriptive Statistics and Data Wrangling
…
library(RandomData)

race_stats |>
  select(circuit, year, constructor, surname, points) |>
  # remove duplicates
  unique() |>
  filter(constructor == "McLaren" & year == 2023)

# A tibble: 40 × 5
   circuit                         year constructor surname points
   <chr>                          <dbl> <chr>       <chr>    <dbl>
 1 Bahrain International Circuit   2023 McLaren     Norris       0
 2 Jeddah Corniche Circuit         2023 McLaren     Norris       0
 3 Jeddah Corniche Circuit         2023 McLaren     Piastri      0
 4 Albert Park Grand Prix Circuit  2023 McLaren     Norris       8
 5 Albert Park Grand Prix Circuit  2023 McLaren     Piastri      4
 6 Baku City Circuit               2023 McLaren     Norris       2
 7 Baku City Circuit               2023 McLaren     Piastri      0
 8 Miami International Autodrome   2023 McLaren     Norris       0
 9 Miami International Autodrome   2023 McLaren     Piastri      0
10 Circuit de Monaco               2023 McLaren     Norris       2
# ℹ 30 more rows

What if we wanted two different constructors? Then we want to use the logical operator for | and also differentiate it from the next instruction for filter by using a , or (). In the example bellow, I filter for the race information for the constructor Mercades and Red Bull during the 2021 season.

race_stats |>
  select(circuit, year, constructor, surname, points) |>
  # remove duplicates
    unique() |>
    filter(constructor == "Mercades" |  constructor == "Red Bull", year == 2021) |>
    print()

# A tibble: 40 × 5
   circuit                             year constructor surname    points
   <chr>                              <dbl> <chr>       <chr>       <dbl>
 1 Losail International Circuit        2021 Red Bull    Pérez          12
 2 Losail International Circuit        2021 Red Bull    Verstappen     19
 3 Bahrain International Circuit       2021 Red Bull    Pérez          10
 4 Bahrain International Circuit       2021 Red Bull    Verstappen     18
 5 Autodromo Enzo e Dino Ferrari       2021 Red Bull    Pérez           0
 6 Autodromo Enzo e Dino Ferrari       2021 Red Bull    Verstappen     25
 7 Autódromo Internacional do Algarve  2021 Red Bull    Pérez          12
 8 Autódromo Internacional do Algarve  2021 Red Bull    Verstappen     18
 9 Circuit de Barcelona-Catalunya      2021 Red Bull    Pérez          10
10 Circuit de Barcelona-Catalunya      2021 Red Bull    Verstappen     19
# ℹ 30 more rows

However, if we wanted to use the modified data, we could not because it is not saved. If we want to use this data we need to save it as a new object!

season_2021 <- race_stats |>
  select(circuit, year, constructor, surname, points) |>
  # remove duplicates
    unique() |>
    filter(constructor == "Mercades" |  constructor == "Red Bull", year == 2021) |>
    print()

# A tibble: 40 × 5
   circuit                             year constructor surname    points
   <chr>                              <dbl> <chr>       <chr>       <dbl>
 1 Losail International Circuit        2021 Red Bull    Pérez          12
 2 Losail International Circuit        2021 Red Bull    Verstappen     19
 3 Bahrain International Circuit       2021 Red Bull    Pérez          10
 4 Bahrain International Circuit       2021 Red Bull    Verstappen     18
 5 Autodromo Enzo e Dino Ferrari       2021 Red Bull    Pérez           0
 6 Autodromo Enzo e Dino Ferrari       2021 Red Bull    Verstappen     25
 7 Autódromo Internacional do Algarve  2021 Red Bull    Pérez          12
 8 Autódromo Internacional do Algarve  2021 Red Bull    Verstappen     18
 9 Circuit de Barcelona-Catalunya      2021 Red Bull    Pérez          10
10 Circuit de Barcelona-Catalunya      2021 Red Bull    Verstappen     19
# ℹ 30 more rows
…
In the example below, we calculate the average lap time by taking the total time for the driver to finish the race divided by the number of laps.

season_2023 <- race_stats |>
  select(circuit, year, constructor, surname, time, laps) |>
  filter(constructor == "McLaren" & year == 2023) |>
  mutate(avg_laptime = sum(time)/laps)

season_2023 |> 
   select(circuit, year, constructor, surname, avg_laptime) |>
   # remove duplicates
   unique() |>
   print()

# A tibble: 40 × 5
   circuit                         year constructor surname avg_laptime
   <chr>                          <dbl> <chr>       <chr>         <dbl>
 1 Bahrain International Circuit   2023 McLaren     Norris      646286.
 2 Jeddah Corniche Circuit         2023 McLaren     Norris      710915.
 3 Jeddah Corniche Circuit         2023 McLaren     Piastri     710915.
 4 Albert Park Grand Prix Circuit  2023 McLaren     Norris      612858.
 5 Albert Park Grand Prix Circuit  2023 McLaren     Piastri     612858.
 6 Baku City Circuit               2023 McLaren     Norris      696975.
 7 Baku City Circuit               2023 McLaren     Piastri     696975.
 8 Miami International Autodrome   2023 McLaren     Norris      623609.
 9 Miami International Autodrome   2023 McLaren     Piastri     634745.
10 Circuit de Monaco               2023 McLaren     Norris      461633.
# ℹ 30 more rows
…
print(McLarenStandings_2023)

# A tibble: 40 × 5
   circuit                         year constructor surname final_position
   <chr>                          <dbl> <chr>       <chr>   <chr>         
 1 Bahrain International Circuit   2023 McLaren     Norris  17            
 2 Jeddah Corniche Circuit         2023 McLaren     Norris  17            
 3 Jeddah Corniche Circuit         2023 McLaren     Piastri 15            
 4 Albert Park Grand Prix Circuit  2023 McLaren     Norris  6             
 5 Albert Park Grand Prix Circuit  2023 McLaren     Piastri 8             
 6 Baku City Circuit               2023 McLaren     Norris  9             
 7 Baku City Circuit               2023 McLaren     Piastri 11            
 8 Miami International Autodrome   2023 McLaren     Norris  17            
 9 Miami International Autodrome   2023 McLaren     Piastri 19            
10 Circuit de Monaco               2023 McLaren     Norris  9             
# ℹ 30 more rows
…
print(TeamStandings_2023)

# A tibble: 22 × 2
   surname    perc_points
   <chr>            <dbl>
 1 Albon             96.2
 2 Alonso            74.4
 3 Norris            69.2
 4 Verstappen        67.1
 5 Hülkenberg        66.7
 6 Tsunoda           63.6
 7 Bottas            62.5
 8 Hamilton          58.0
 9 Leclerc           51.0
10 Ocon              50.9
# ℹ 12 more rows
